This is BibTeX, Version 0.99d (TeX Live 2019/Debian)
Capacity: max_strings=200000, hash_size=200000, hash_prime=170003
The top-level auxiliary file: report.aux
The style file: ieeetr.bst
Database file #1: ref.bib
You've used 6 entries,
            1876 wiz_defined-function locations,
            513 strings with 4543 characters,
and the built_in function-call counts, 1438 in all, are:
= -- 130
> -- 56
< -- 0
+ -- 21
- -- 15
* -- 84
:= -- 198
add.period$ -- 6
call.type$ -- 6
change.case$ -- 6
chr.to.int$ -- 0
cite$ -- 6
duplicate$ -- 79
empty$ -- 155
format.name$ -- 15
if$ -- 361
int.to.chr$ -- 0
int.to.str$ -- 6
missing$ -- 3
newline$ -- 21
num.names$ -- 8
pop$ -- 31
preamble$ -- 1
purify$ -- 0
quote$ -- 0
skip$ -- 70
stack$ -- 0
substring$ -- 54
swap$ -- 31
text.length$ -- 0
text.prefix$ -- 0
top$ -- 0
type$ -- 0
warning$ -- 0
while$ -- 13
width$ -- 7
write$ -- 55
