\BOOKMARK [1][-]{section.1}{Introduction}{}% 1
\BOOKMARK [1][-]{section.2}{First Part}{}% 2
\BOOKMARK [2][-]{subsection.2.1}{How It Works}{section.2}% 3
\BOOKMARK [2][-]{subsection.2.2}{Download}{section.2}% 4
\BOOKMARK [2][-]{subsection.2.3}{Analysis}{section.2}% 5
\BOOKMARK [2][-]{subsection.2.4}{Example of Analysis}{section.2}% 6
\BOOKMARK [1][-]{section.3}{Second Part}{}% 7
\BOOKMARK [2][-]{subsection.3.1}{Kademlia Protocol vs IPFS Kademlia Protocol \(S/Kademlia\)}{section.3}% 8
\BOOKMARK [2][-]{subsection.3.2}{Kademlia leaks}{section.3}% 9
\BOOKMARK [2][-]{subsection.3.3}{Kademlia Distance Metrics vs Chord Distance Metrics}{section.3}% 10
\BOOKMARK [3][-]{subsubsection.3.3.1}{Chord: Distance function}{subsection.3.3}% 11
\BOOKMARK [3][-]{subsubsection.3.3.2}{Kademlia: Distance function}{subsection.3.3}% 12
\BOOKMARK [1][-]{section.4}{Conclusion}{}% 13
