{
    "12D3KooWLZmw9CHcnk6vuovrzTbzp9m4PrPE5yCqhtTFhrVgXtD8": {
      "Peer": "12D3KooWLZmw9CHcnk6vuovrzTbzp9m4PrPE5yCqhtTFhrVgXtD8",
      "Value": 0,
      "Sent": 0,
      "Recv": 15196012,
      "Exchanged": 2061
    },
    "12D3KooWPBRLg8uon1g8ziYsasiPH3MMr52hmh1eHdN8XC1JR7fW": {
      "Peer": "12D3KooWPBRLg8uon1g8ziYsasiPH3MMr52hmh1eHdN8XC1JR7fW",
      "Value": 0,
      "Sent": 0,
      "Recv": 31264,
      "Exchanged": 1
    },
    "QmNSYxZAiJHeLdkBg38roksAR9So7Y5eojks1yjEcUtZ7i": {
      "Peer": "QmNSYxZAiJHeLdkBg38roksAR9So7Y5eojks1yjEcUtZ7i",
      "Value": 0,
      "Sent": 0,
      "Recv": 10972798,
      "Exchanged": 1147
    },
   ....
  }