\begin{thebibliography}{1}

\bibitem{1675628}
{Bentley} and {Wood}, ``An optimal worst case algorithm for reporting
  intersections of rectangles,'' {\em IEEE Transactions on Computers},
  vol.~C-29, pp.~571--577, July 1980.

\bibitem{github:cpstl}
V.~{Palazzo}, ``{Competitive Programming Standard libary}.''
  \url{https://github.com/vincenzopalazzo/cpstl}.

\bibitem{github:cpvsol}
V.~{Palazzo}, ``Competitive-programming-and-contests-vp-solution.''
  \url{https://vincenzopalazzo.github.io/Competitive-Programming-and-Contests-VP-Solution/}.

\bibitem{judge:hackerearth}
Hackerearth, ``{www.hackerearth.com}.'' \url{https://www.hackerearth.com}.

\bibitem{google:benchmark}
{Google}, ``Google benchmarks.'' \url{https://github.com/google/benchmark}.

\bibitem{github:rmqbenchmark}
V.~{Palazzo}, ``{RMQ with Update query benchmarks discussion}.''
  \url{https://vincenzopalazzo.github.io/Competitive-Programming-and-Contests-VP-Solution/Appendix/report_experiment/RMQ/benchmark/results/RMQ_benchmark/}.

\bibitem{judge:codeforce}
Codeforces, ``{www.codeforces.com}.'' \url{https://codeforces.com/}.

\bibitem{judge:spoj}
Spoj, ``{www.spoj.com}.'' \url{www.spoj.com}.

\bibitem{github:MKTHNUMbenchmark}
V.~{Palazzo}, ``{MKTHNUM benchmarks discussion}.''
  \url{https://vincenzopalazzo.github.io/Competitive-Programming-and-Contests-VP-Solution/Appendix/report_experiment/MKTHNUM/benchmark/result/MKTHNUM_benchmark/}.

\end{thebibliography}
