This is BibTeX, Version 0.99d (TeX Live 2019/Debian)
Capacity: max_strings=200000, hash_size=200000, hash_prime=170003
The top-level auxiliary file: report.aux
The style file: ieeetr.bst
Database file #1: ref.bib
You've used 5 entries,
            1876 wiz_defined-function locations,
            505 strings with 4237 characters,
and the built_in function-call counts, 891 in all, are:
= -- 81
> -- 27
< -- 0
+ -- 12
- -- 7
* -- 52
:= -- 124
add.period$ -- 6
call.type$ -- 5
change.case$ -- 4
chr.to.int$ -- 0
cite$ -- 5
duplicate$ -- 43
empty$ -- 110
format.name$ -- 7
if$ -- 220
int.to.chr$ -- 0
int.to.str$ -- 5
missing$ -- 1
newline$ -- 19
num.names$ -- 4
pop$ -- 23
preamble$ -- 1
purify$ -- 0
quote$ -- 0
skip$ -- 36
stack$ -- 0
substring$ -- 32
swap$ -- 10
text.length$ -- 0
text.prefix$ -- 0
top$ -- 0
type$ -- 0
warning$ -- 0
while$ -- 7
width$ -- 6
write$ -- 44
