\beamer@sectionintoc {1}{Comparisons Between Graph Database}{3}{0}{1}
\beamer@sectionintoc {2}{Arango DB vs Neo4j DB}{6}{0}{2}
\beamer@sectionintoc {3}{Graph Database Benchmarks}{9}{0}{3}
\beamer@sectionintoc {4}{Arango DB Demo}{16}{0}{4}
\beamer@sectionintoc {5}{Graph Compute Engine}{23}{0}{5}
