\beamer@sectionintoc {1}{Power of Graph Database}{3}{0}{1}
\beamer@sectionintoc {2}{Index-free adjacency}{5}{0}{2}
\beamer@sectionintoc {3}{Data Model with Graphs}{11}{0}{3}
\beamer@sectionintoc {4}{An Introduction to Cypher}{14}{0}{4}
