\BOOKMARK [2][]{Outline0.1}{Power\040of\040Graph\040Database}{}% 1
\BOOKMARK [2][]{Outline0.2}{Index-free\040adjacency}{}% 2
\BOOKMARK [2][]{Outline0.3}{Data\040Model\040with\040Graphs}{}% 3
\BOOKMARK [2][]{Outline0.4}{An\040Introduction\040to\040Cypher}{}% 4
