\BOOKMARK [2][]{Outline0.1}{Recall\040Procedure\040Abstraction}{}% 1
\BOOKMARK [2][]{Outline0.2}{Recall\040Object-oriented\040languages}{}% 2
\BOOKMARK [2][]{Outline0.3}{Problems}{}% 3
\BOOKMARK [2][]{Outline0.4}{Scope\040Visibility}{}% 4
\BOOKMARK [2][]{Outline0.5}{Methods\040Dispatch}{}% 5
\BOOKMARK [2][]{Outline0.6}{Multiple\040inheritance}{}% 6
\BOOKMARK [2][]{Outline0.7}{Recalls}{}% 7
